…
    ## Loading required package: Matrix

    ## 
    ## Attaching package: 'Matrix'

    ## The following objects are masked from 'package:tidyr':
    ## 
    ##     expand, pack, unpack

    ## Loaded glmnet 4.1-7

    ## # A tibble: 26 × 3
    ##    term          estimate penalty
    ##    <chr>            <dbl>   <dbl>
    ##  1 (Intercept)    -2.21         0
    ##  2 USMER          -0.128        0
    ##  3 RENAL_CHRONIC   0.442        0
    ##  4 MEDICAL_UNIT2   0.336        0
    ##  5 MEDICAL_UNIT3  -0.223        0
    ##  6 MEDICAL_UNIT4   0.404        0
    ##  7 MEDICAL_UNIT5  -0.0172       0
    ##  8 MEDICAL_UNIT6  -0.0871       0
    ##  9 MEDICAL_UNIT7  -0.770        0
    ## 10 MEDICAL_UNIT8  -0.544        0
    ## # ℹ 16 more rows
…
``` r
# Train a logistic regression model
covidmodel2 <- logistic_reg(mixture = double(1), penalty = double(1)) %>%
  set_engine("glmnet") %>%
  set_mode("classification") %>%
  fit(DIED ~ ., data = train2)

# Model summary
tidy(covidmodel2)
```

    ## # A tibble: 26 × 3
    ##    term          estimate penalty
    ##    <chr>            <dbl>   <dbl>
    ##  1 (Intercept)     0.202        0
    ##  2 USMER          -0.176        0
    ##  3 RENAL_CHRONIC   0.512        0
    ##  4 MEDICAL_UNIT2   0.210        0
    ##  5 MEDICAL_UNIT3  -0.207        0
    ##  6 MEDICAL_UNIT4   0.399        0
    ##  7 MEDICAL_UNIT5   0.0707       0
    ##  8 MEDICAL_UNIT6  -0.0351       0
    ##  9 MEDICAL_UNIT7  -0.700        0
    ## 10 MEDICAL_UNIT8  -0.360        0
    ## # ℹ 16 more rows
…
